…
The dimension of the dataset is (1868, 19).

The data are not tidy. Because some variables, such like the factor that whether a station served for A line, have values appear in different columns.

------------------------------------------------------------------------

Use distinct function to find out number of distinct stations.

``` r
distinct(transit_data, line, station_name)
```

    ## # A tibble: 465 x 2
    ##    line     station_name            
    ##    <chr>    <chr>                   
    ##  1 4 Avenue 25th St                 
    ##  2 4 Avenue 36th St                 
    ##  3 4 Avenue 45th St                 
    ##  4 4 Avenue 53rd St                 
    ##  5 4 Avenue 59th St                 
    ##  6 4 Avenue 77th St                 
    ##  7 4 Avenue 86th St                 
    ##  8 4 Avenue 95th St                 
    ##  9 4 Avenue 9th St                  
    ## 10 4 Avenue Atlantic Av-Barclays Ctr
    ## # ... with 455 more rows

There are 465 distinct stations.

------------------------------------------------------------------------

Use filter and distinct to find out number of stations which are ADA compliant.

``` r
transit_data %>% 
  filter(ada == TRUE) %>% 
  distinct(line, station_name)
```

    ## # A tibble: 84 x 2
    ##    line            station_name                  
    ##    <chr>           <chr>                         
    ##  1 4 Avenue        Atlantic Av-Barclays Ctr      
    ##  2 4 Avenue        DeKalb Av                     
    ##  3 4 Avenue        Pacific St                    
    ##  4 42nd St Shuttle Grand Central                 
    ##  5 6 Avenue        34th St                       
    ##  6 6 Avenue        47-50th Sts Rockefeller Center
    ##  7 6 Avenue        Church Av                     
    ##  8 63rd Street     21st St                       
    ##  9 63rd Street     Lexington Av                  
    ## 10 63rd Street     Roosevelt Island              
    ## # ... with 74 more rows
…
